{
  "name": "${localWorkspaceFolderBasename}",
  "dockerComposeFile": "../docker-compose.yml",
  "runServices": [
    "mysql",
    "www",
    "www-dev",
    "phpmyadmin"
  ],
  "service": "www-dev",
  "workspaceFolder": "/var/www/html",
  "settings": {
    "terminal.integrated.shell.linux": "/bin/bash",
  },
}
